{
    "status"    : 200,
    "message"   : "OK",
    "dataSlide" : [
        {
            "title" : "Pecel Lele",
            "desc"  : "Pecel Lele adalah Makanan yang biasanya ada di malam hari."
        }, {
            "title" : "Enak",
            "desc"  : "Berada di seluruh kawasan Ibu Kota Jakarta."
        }, {
            "title" : "Dijamin Mengenyangkan",
            "desc"  : "Mari lah beli di tempat kami."
        }
    ],
    
    "dataFoods" : [
        {
            "title" : "Pecel Lele",
            "desc"  : "Pecel Lele",
            "price" : 15000,
            "icon"  : "/src/props/menu/menu_lengkap.jpg"
        }, {
            "title" : "Ayam",
            "desc"  : "Pendamping Nasi",
            "price" : 8000,
            "icon"  : "/src/props/menu/ayam.jpg"
        }, {
            "title" : "Lalapan",
            "desc"  : "Pelengkap Nasi, ayam dan lele",
            "price" : 3000,
            "icon"  : "/src/props/menu/lalapan.jpg"
        }, {
            "title" : "Nasi",
            "desc"  : "Karbohidrat wajib",
            "price" : 7000,
            "icon"  : "/src/props/menu/nasi.jpg"
        }, {
            "title" : "Pecel Ayam",
            "desc"  : "Apabila anda tidak suka ikan",
            "price" : 15000,
            "icon"  : "/src/props/menu/pecelayam.jpg"
        }, {
            "title" : "Sambal",
            "desc"  : "Hal yang wajib",
            "price" : 3000,
            "icon"  : "/src/props/menu/sambal.jpg"
        }, {
            "title" : "Tahu Tempe",
            "desc"  : "Tahu dan Tempe",
            "price" : 5000,
            "icon"  : "/src/props/menu/tahutempe.jpg"
        }
    ],

    "dataDrinks" : [
        {
            "title" : "Air Putih",
            "desc"  : "Apabila punya uang yang pas-pas an, pesan ini saja untuk minumnya.",
            "price" : 3000,
            "icon"  : "/src/props/menu/airputih.jpg"
        }, {
            "title" : "Es Jeruk",
            "desc"  : "Cocok untuk anda yang habis makan pedas",
            "price" : 5000,
            "icon"  : "/src/props/menu/esjeruk.jpg"
        }, {
            "title": "Es Teh Manis",
            "desc": "Minuman untuk anda yang sangat haus.",
            "price": 4000,
            "icon": "/src/props/menu/esteh.jpg"
        }
    ]
}